@startuml
title Models



namespace com.blaze.clients.metrcs.configs {
    class MetricsConfig {
        List<MetrcAPIConfig> apis
    }

    class MetrcAPIConfig {
        String apiURL
        String apiKey
        MetrcState state
    }
    MetricsConfig *-- MetrcAPIConfig : retrieves by state >
}

namespace com.fourtwenty.core.domain.models.thirdparty {
    class MetrcAccount extends com.fourtwenty.core.domain.models.company.CompanyBaseModel {
        boolean enabled
        String userApiKey
        List<MetrcFacilityAccount> facilities
    }
}
namespace com.fourtwenty.core.services.thirdparty.models {
    class MetrcVerifiedPackage {
        int Id
        String Label
        String PackageType
        String SourceHarvestNames
        double Quantity
        String UnitOfMeasureName
        String UnitOfMeasureAbbreviation
        boolean available
        double blazeQuantity
        boolean required
        WeightKey blazeMeasurement
    }

    MetrcVerifiedPackage -- com.fourtwenty.core.domain.models.product.WeightKey : uses >
}

namespace com.fourtwenty.core.domain.models.product {
    enum WeightKey {
            UNIT,
            HALF_GRAM,
            GRAM,
            TWO_GRAMS,
            THREE_GRAMS,
            ONE_EIGHTTH,
            QUARTER,
            HALF,
            OUNCE,
            CUSTOM
    }
}
namespace com.fourtwenty.core.domain.models.thirdparty {
    class MetrcFacilityAccount extends com.fourtwenty.core.domain.models.generic.ShopBaseModel {
        Long lastSyncDate
        boolean enabled
        boolean enableSync
        String facLicense
        Boolean enforce
        boolean enableDeliveryTransaction
    }
}

@enduml