{
  "productTolerances": [
    {
      "name": ".5 Gram",
      "startWeight": 0.5,
      "endWeight": 0.6,
      "priority": 0,
      "unitValue": 0.5,
      "weightValue": 0.5,
      "weightKey": "HALF_GRAM"
    },
    {
      "name": "Gram",
      "startWeight": 0.85,
      "endWeight": 1.35,
      "priority": 1,
      "unitValue": 1,
      "weightValue": 1.0,
      "weightKey": "GRAM"
    },
    {
      "name": "2 Grams",
      "startWeight": 2,
      "endWeight": 2.1,
      "priority": 2,
      "unitValue": 2,
      "weightValue": 2.0,
      "weightKey": "TWO_GRAMS"
    },
    {
      "name": "3 Grams",
      "startWeight": 3,
      "endWeight": 3.1,
      "priority": 3,
      "unitValue": 3,
      "weightValue": 3.0,
      "weightKey": "THREE_GRAMS"
    },
    {
      "name": "1/8th",
      "startWeight": 3.45,
      "endWeight": 3.85,
      "priority": 4,
      "unitValue": 3.5,
      "weightValue": 3.54369,
      "weightKey": "ONE_EIGHTTH"
    },
    {
      "name": "1/4th",
      "startWeight": 7,
      "endWeight": 7.5,
      "priority": 5,
      "unitValue": 7,
      "weightValue": 7.087381,
      "weightKey": "QUARTER"
    },
    {
      "name": "1/2",
      "startWeight": 14,
      "endWeight": 14.5,
      "priority": 6,
      "unitValue": 14,
      "weightValue": 14.17476,
      "weightKey": "HALF"
    },
    {
      "name": "1 Oz",
      "startWeight": 28,
      "endWeight": 28.5,
      "priority": 7,
      "unitValue": 28,
      "weightValue": 28.34952,
      "weightKey": "OUNCE"
    }
  ],
  "taxInfos": [
    {
      "cityTax": 0,
      "stateTax": 0.08,
      "federalTax": 0
    }
  ],
  "productCategories": [
    {
      "name": "Flowers",
      "cannabis": true,
      "imageURL": "Flower.jpg",
      "unitType": "grams"
    },
    {
      "name": "Edibles",
      "cannabis": true,
      "imageURL": "Edibles.jpg",
      "unitType": "units"
    },
    {
      "name": "Preroll",
      "cannabis": true,
      "imageURL": "Preroll.jpg",
      "unitType": "units"
    },
    {
      "name": "Accessories",
      "cannabis": false,
      "imageURL": "Accessories.jpg",
      "unitType": "units"
    },
    {
      "name": "Vape Pens",
      "cannabis": true,
      "imageURL": "VapePen.jpg",
      "unitType": "units"
    },
    {
      "name": "CO2 Oil",
      "cannabis": true,
      "imageURL": "CO2_Oil.jpg",
      "unitType": "units"
    },
    {
      "name": "Wax",
      "cannabis": true,
      "imageURL": "Wax.jpg",
      "unitType": "units"
    },
    {
      "name": "Paraphernalia",
      "cannabis": false,
      "imageURL": "Drinks.jpg",
      "unitType": "units"
    },
    {
      "name": "Drinks",
      "cannabis": true,
      "imageURL": "Drinks.jpg",
      "unitType": "units"
    },
    {
      "name": "Hash",
      "cannabis": true,
      "imageURL": "Hash.jpg",
      "unitType": "units"
    },
    {
      "name": "Topicals",
      "cannabis": true,
      "imageURL": "Topicals.jpg",
      "unitType": "units"
    },
    {
      "name": "Tincture",
      "cannabis": true,
      "imageURL": "Tincture.jpg",
      "unitType": "units"
    },
    {
      "name": "Bulk Flower",
      "cannabis": true,
      "imageURL": "Bulk_Flower.jpg",
      "unitType": "units",
      "appTarget" : "Grow"
    },
    {
      "name": "Bulk Small Flower",
      "cannabis": true,
      "imageURL": "Bulk_Small_Flower.jpg",
      "unitType": "units",
      "appTarget" : "Grow"
    },
    {
      "name": "Bulk Trim",
      "cannabis": true,
      "imageURL": "Bulk_Trim.jpg",
      "unitType": "units",
      "appTarget" : "Grow"
    },
    {
      "name": "Fresh Frozen",
      "cannabis": true,
      "imageURL": "Fresh_Frozen.jpg",
      "unitType": "units",
      "appTarget" : "Grow"
    },
    {
      "name": "Kief",
      "cannabis": true,
      "imageURL": "Kief.jpg",
      "unitType": "units",
      "appTarget" : "Grow"
    }
  ],
  "memberGroups": [
    {
      "name": "Walk-In",
      "discount": 0,
      "active": true
    },
    {
      "name": "Delivery",
      "discount": 0,
      "defaultGroup": true,
      "active": true
    },
    {
      "name": "VIP",
      "discount": 10,
      "active": true
    },
    {
      "name": "Veteran",
      "discount": 10,
      "active": true
    },
    {
      "name": "Cancer Patient",
      "discount": 15,
      "active": true
    }
  ],
  "inventories": [
    {
      "name": "Safe",
      "type": "Storage",
      "active": true
    },
    {
      "name": "Shelf",
      "type": "Field",
      "active": true
    },
    {
      "name": "Delivery",
      "type": "Field",
      "active": true
    },
    {
      "name": "Exchange",
      "type": "Storage",
      "active": true
    }
  ],
  "roles": [
    {
      "name": "Inactive",
      "permissions": []
    },
    {
      "name": "Front Desk",
      "permissions": [
        "WebAdminLogin",
        "iPadMemberAdd",
        "iPadMemberEdit",
        "iPadTransactionsViews",
        "iPadInitiation",
        "iPadQuickPinLogin",
        "WebMembersView",
        "WebMembersManage",
        "WebMembersAddToQueue",
        "WebTransactionsView",
        "WebPhysiciansView",
        "WebPhysiciansManage"
      ]
    },
    {
      "name": "Budtender",
      "permissions": [
        "WebAdminLogin",
        "iPadMemberAdd",
        "iPadMemberEdit",
        "iPadTransactionsViews",
        "iPadInitiation",
        "iPadQuickPinLogin",
        "iPadProcessSales",
        "iPadCashDrawerOpen",
        "iPadTransactionsLookup",
        "iPadApplyCartDiscounts",
        "iPadApplyLineItemDiscounts",
        "WebMembersView",
        "WebMembersManage",
        "WebMembersAddToQueue",
        "WebTransactionsView",
        "WebPhysiciansView",
        "WebPhysiciansManage",
        "WebCashDrawerView"
      ]
    },
    {
      "name": "Delivery Driver",
      "permissions": [
        "WebAdminLogin",
        "iPadMemberAdd",
        "iPadMemberEdit",
        "iPadTransactionsViews",
        "iPadInitiation",
        "iPadQuickPinLogin",
        "iPadProcessSales",
        "iPadCashDrawerOpen",
        "iPadTransactionsLookup",
        "iPadApplyCartDiscounts",
        "iPadApplyLineItemDiscounts",
        "WebMembersView",
        "WebMembersManage",
        "WebMembersAddToQueue",
        "WebTransactionsView",
        "WebPhysiciansView",
        "WebPhysiciansManage",
        "WebCashDrawerView"
      ]
    },
    {
      "name": "Manager",
      "permissions": [
        "WebCashDrawerView",
        "WebMembersManage",
        "iPadApplyCoupons",
        "WebInventoryView",
        "WebVendorManage",
        "WebTransactionsView",
        "WebVendorView",
        "WebPhysiciansManage",
        "iPadCashDrawerOpen",
        "iPadManageSettingsView",
        "WebMembersView",
        "WebInventoryTransfer",
        "WebEmployeeClockout",
        "WebAllMembersView",
        "WebInventoryCategoryManage",
        "iPadTransactionsLookup",
        "WebUnlockOrder",
        "iPadApplyLineItemDiscounts",
        "iPadInitiation",
        "iPadMemberAdd",
        "iPadTransactionsViews",
        "iPadProcessSales",
        "iPadCashDrawerCloseOut",
        "WebTransactionsRefund",
        "iPadQueueAddMember",
        "WebPhysiciansView",
        "WebMembersAddToQueue",
        "WebPromotionsManage",
        "WebAddBatch",
        "iPadApplyCartDiscounts",
        "WebSettingsView",
        "WebEditBatch",
        "iPadMemberEdit",
        "WebSettingsManage",
        "WebAdminLogin",
        "iPadQuickPinLogin",
        "WebEmployeeManage",
        "iPadManagerSettingsManage",
        "WebInventoryManage",
        "iPadRefund",
        "WebReportsView",
        "WebPromotionsView",
        "WebEmployeeView",
        "WebDeliveryView"
      ]
    },
    {
      "name": "Admin",
      "permissions": [
        "WebCashDrawerView",
        "WebMembersManage",
        "iPadApplyCoupons",
        "WebInventoryView",
        "WebVendorManage",
        "WebTransactionsView",
        "WebVendorView",
        "WebPhysiciansManage",
        "iPadCashDrawerOpen",
        "iPadManageSettingsView",
        "WebMembersView",
        "WebInventoryTransfer",
        "WebEmployeeClockout",
        "WebAllMembersView",
        "WebInventoryCategoryManage",
        "iPadTransactionsLookup",
        "WebUnlockOrder",
        "iPadApplyLineItemDiscounts",
        "iPadInitiation",
        "iPadMemberAdd",
        "iPadTransactionsViews",
        "iPadProcessSales",
        "iPadCashDrawerCloseOut",
        "WebTransactionsRefund",
        "iPadQueueAddMember",
        "WebPhysiciansView",
        "WebMembersAddToQueue",
        "WebPromotionsManage",
        "WebAddBatch",
        "iPadApplyCartDiscounts",
        "WebSettingsView",
        "WebEditBatch",
        "iPadMemberEdit",
        "WebSettingsManage",
        "WebAdminLogin",
        "iPadQuickPinLogin",
        "WebEmployeeManage",
        "iPadManagerSettingsManage",
        "WebInventoryManage",
        "iPadRefund",
        "WebReportsView",
        "WebPromotionsView",
        "WebEmployeeView",
        "WebDeliveryView",
        "WebInvoiceView",
        "WebInvoiceManage",
        "WebInvoiceManifestChange",
        "WebDashboardView",
        "WebPurchaseOrderView",
        "WebPurchaseOrderManage",
        "WebExpenseView",
        "WebExpenseManage",
        "WebEditPosPayment"
      ]
    },
    {
      "name": "Dispatcher",
      "permissions": [
        "WebAdminLogin",
        "iPadMemberAdd",
        "iPadMemberEdit",
        "iPadTransactionsViews",
        "iPadInitiation",
        "iPadQuickPinLogin",
        "iPadProcessSales",
        "iPadCashDrawerOpen",
        "iPadRefund",
        "iPadApplyCartDiscounts",
        "iPadApplyLineItemDiscounts",
        "iPadApplyCoupons",
        "iPadCashDrawerCloseOut",
        "iPadTransactionsLookup",
        "iPadManageSettingsView",
        "iPadManagerSettingsManage",
        "iPadManagerSettingsManage",
        "WebPromotionsView",
        "WebPromotionsManage",
        "WebMembersView",
        "WebMembersManage",
        "WebMembersAddToQueue",
        "WebTransactionsView",
        "WebPhysiciansView",
        "WebPhysiciansManage",
        "WebTransactionsRefund",
        "WebInventoryView",
        "WebInventoryCategoryManage",
        "WebInventoryTransfer",
        "WebInventoryManage",
        "WebEmployeeView",
        "WebEmployeeClockout",
        "WebVendorView",
        "WebVendorManage",
        "WebDeliveryView",
        "WebAllMembersView"
      ]
    },
    {
      "name": "Shop Manager",
      "permissions": [
        "WebAdminLogin",
        "iPadMemberAdd",
        "iPadMemberEdit",
        "iPadTransactionsViews",
        "iPadInitiation",
        "iPadQuickPinLogin",
        "iPadProcessSales",
        "iPadCashDrawerOpen",
        "iPadRefund",
        "iPadApplyCartDiscounts",
        "iPadApplyLineItemDiscounts",
        "iPadApplyCoupons",
        "iPadCashDrawerCloseOut",
        "iPadTransactionsLookup",
        "iPadManageSettingsView",
        "iPadManagerSettingsManage",
        "iPadManagerSettingsManage",
        "WebPromotionsView",
        "WebPromotionsManage",
        "WebMembersView",
        "WebMembersManage",
        "WebMembersAddToQueue",
        "WebTransactionsView",
        "WebPhysiciansView",
        "WebPhysiciansManage",
        "WebTransactionsRefund",
        "WebInventoryView",
        "WebInventoryCategoryManage",
        "WebInventoryTransfer",
        "WebInventoryManage",
        "WebEmployeeView",
        "WebEmployeeManage",
        "WebEmployeeClockout",
        "WebVendorView",
        "WebVendorManage",
        "WebReportsView",
        "WebSettingsView",
        "WebSettingsManage",
        "WebDeliveryView",
        "WebCashDrawerView"
      ]
    },
    {
      "name": "Shop Dispatcher",
      "permissions": [
        "WebAdminLogin",
        "iPadMemberAdd",
        "iPadMemberEdit",
        "iPadTransactionsViews",
        "iPadInitiation",
        "iPadQuickPinLogin",
        "iPadProcessSales",
        "iPadCashDrawerOpen",
        "iPadRefund",
        "iPadApplyCartDiscounts",
        "iPadApplyLineItemDiscounts",
        "iPadApplyCoupons",
        "iPadCashDrawerCloseOut",
        "iPadTransactionsLookup",
        "iPadManageSettingsView",
        "iPadManagerSettingsManage",
        "iPadManagerSettingsManage",
        "WebPromotionsView",
        "WebPromotionsManage",
        "WebMembersView",
        "WebMembersManage",
        "WebMembersAddToQueue",
        "WebTransactionsView",
        "WebPhysiciansView",
        "WebPhysiciansManage",
        "WebTransactionsRefund",
        "WebInventoryView",
        "WebInventoryCategoryManage",
        "WebInventoryTransfer",
        "WebInventoryManage",
        "WebEmployeeView",
        "WebEmployeeManage",
        "WebEmployeeClockout",
        "WebVendorView",
        "WebVendorManage",
        "WebDeliveryView"
      ]
    }
  ]
}