{
  "create": true,
  "indices": [
    {
      "collectionName": "invoices",
      "indexes": [
        "{invoiceId:1}",
        "{companyId:1,shopId:1,customerId:1,deleted:1}",
        "{companyId:1,shopId:1,deleted:1,active:1}"
      ]
    },
    {
      "collectionName": "invoice_payments",
      "indexes": [
        "{invoiceId:1}"
      ]
    },
    {
      "collectionName": "invoice_history",
      "indexes": [
        "{invoiceId:1}"
      ]
    },
    {
      "collectionName": "invoice_activity_log",
      "indexes": [
        "{targetId:1}"
      ]
    },
    {
      "collectionName": "batch_activity_log",
      "indexes": [
        "{targetId:1}"
      ]
    },
    {
      "collectionName": "company_contact_logs",
      "indexes": [
        "{customerCompanyId:1}"
      ]
    },
    {
      "collectionName": "company_contacts",
      "indexes": [
        "{customerCompanyId:1}"
      ]
    },
    {
      "collectionName": "expenses",
      "indexes": []
    },
    {
      "collectionName": "expenses_activity_logs",
      "indexes": [
        "{targetId:1}"
      ]
    },
    {
      "collectionName": "shipping_manifest",
      "indexes": [
        "{invoiceId:1}"
      ]
    },
    {
      "collectionName": "test_sample",
      "indexes": [
        "{batchId:1}"
      ]
    },
    {
      "collectionName": "inventory_operations",
      "indexes": [
        "{companyId:1,shopId:1,delete:1}"
      ]
    },
    {
      "collectionName": "shop_payment_options",
      "indexes": [
        "{companyId:1,shopId:1,paymentOption:1}"
      ]
    },
    {
      "collectionName": "metrc_accounts",
      "indexes": [
        "{companyId:1,stateCode:1}"
      ],
      "deleteIndexes":[
        "{companyId:1}"
      ]
    },
    {
      "collectionName": "derived_batch_log",
      "indexes": [
        "{companyId:1,shopId:1,delete:1}"
      ]
    },
    {
      "collectionName": "consumer_users",
      "uniqueIndexes": [
        "{companyId:1,email:1}"
      ],
      "deleteIndexes":[
        "{email:1}"
      ]
    },
    {
      "collectionName": "report_request",
      "indexes": [
        "{companyId:1,shopId:1,delete:1}"
      ]
    },
    {
      "collectionName": "consumer_users",
      "indexes": [
        "{companyId:1,cpn:1}"
      ],
      "deleteIndexes":[
        "{cpn:1}"
      ]
    },
    {
      "collectionName": "background_tasks",
      "indexes": [
        "{companyId:1,shopId:1,modified:1,status:1}"
      ]
    },
    {
      "collectionName": "checkIn",
      "indexes": [
        "{companyId:1,shopId:1,delete:1}"
      ]
    },
    {
      "collectionName": "excise_taxes",
      "indexes": [
        "{state:1, country : 1, cannabisTaxType: 1}"
      ],
      "deleteIndexes":[
        "{state:1, country : 1}"
      ]
    }

  ]
}