{
  "messagingProducts": [
    {
      "pluginType": "MESSAGING",
      "productSKU": "PN-MESSAGING-1",
      "messages": 10000,
      "price": 100,
      "priceType": "MONTHLY"
    }
  ],
  "tvProducts": [
    {
      "pluginType": "TV",
      "productSKU": "PN-TV-1",
      "availableDevices": 10,
      "price": 100,
      "priceType": "MONTHLY"
    },
    {
      "pluginType": "TV",
      "productSKU": "PN-TV-2",
      "availableDevices": 20,
      "price": 150,
      "priceType": "MONTHLY"
    },
    {
      "pluginType": "TV",
      "productSKU": "PN-TV-3",
      "availableDevices": 50,
      "price": 250,
      "priceType": "MONTHLY"
    }
  ],
  "consumerKioskProducts": [
    {
      "pluginType": "CONSUMER_KIOSK",
      "productSKU": "PN-CONKIOSK-1",
      "availableDevices": 2,
      "price": 100,
      "priceType": "MONTHLY"
    },
    {
      "pluginType": "CONSUMER_KIOSK",
      "productSKU": "PN-CONKIOSK-2",
      "availableDevices": 4,
      "price": 150,
      "priceType": "YEARLY"
    }
  ]
}