{
  "createTable" : {
    "total_sales_details": "(id text PRIMARY KEY, created bigint NOT NULL, modified  bigint NOT NULL, deleted bool NOT NULL, updated bool NOT NULL, companyId text NOT NULL, shopId text NOT NULL, orderItemId text NOT NULL, transactionId text NOT NULL, prepackageId text, transCreated bigint NOT NULL, processedTime bigint NOT NULL, transNo text NOT NULL, transType text, transactionStatus text, productId text NOT NULL, memberId text NOT NULL, consumerTaxType text, quantity double precision, batch text, cogs double precision, retailValue double precision, productDiscount double precision, subTotal double precision, cartDiscount double precision, preAlExciseTax double precision, preNalExciseTax double precision, preCityTax double precision, preCountyTax double precision, preStateTax double precision, preFederalTax double precision, postAlExciseTax double precision, postNalExciseTax double precision, cityTax double precision, countyTax double precision, stateTax double precision, federalTax double precision, totalTax double precision, afterTaxDiscount double precision, deliveryFee double precision, creditCardFee double precision, grossReceipt double precision,employeeId text, terminalId text, paymentOption text, promotions text, prepackageItemId text, factor bigint NOT NULL, cartRefundOption text, itemStatus text, calcPreTax double precision);",
    "total_sales": "(id text PRIMARY KEY, created bigint NOT NULL, modified  bigint NOT NULL, deleted bool NOT NULL, updated bool NOT NULL, companyId text NOT NULL, shopId text NOT NULL, transactionId text NOT NULL, processedTime bigint NOT NULL, memberId text, transNo text, transType text, transactionStatus text, consumerTaxType text, cogs double precision, retailValue double precision, discounts double precision, preAlExciseTax double precision, preNalExciseTax double precision, preCityTax double precision, preCountyTax double precision, preStateTax double precision, postAlExciseTax double precision, postNalExciseTax double precision, cityTax double precision, countyTax double precision, stateTax double precision, totalTax double precision, deliveryFee double precision, creditCardFee double precision, afterTaxDiscount double precision, grossReceipt double precision, employeeId text, sellerTerminalId text, paymentOption text, promotions text, traceSubmitStatus text, metrcId text);"
  }
}